SYSTEMATIC REVIEW ON INVESTIGATION METHODS OF MESOPHOTIC ENVIRONMENT WITH A FOCUS ON BENTHIC COMMUNITIES - TEMPERATE
…
# Combine into one dataframe
summary_df <- bind_rows(summary_list)

summary_df

## # A tibble: 72 × 7
##    Column                 unique                  nd notapp assigned  `NA` total
##    <chr>                  <chr>                <int>  <int>    <int> <int> <int>
##  1 meso_direct_indirect   indirect, direct, m…     2      0      537     0   539
##  2 meso_samplingPlatform  rov+trawl, acou+dre…     2      0      537     0   539
##  3 taxonomic_publication  NA, taxa++, taxa         0      0       15   524    15
##  4 meso_substrate         artificial+hard+sof…    12      0      494    33   506
##  5 meso_habitat           cwc+mud+sandy+wreck…    10      0      491    38   501
##  6 meso_protection        nd, yes, mixed, no     290      0      249     0   539
##  7 taxonomicTargetLevel   group, comm+group, …     0     16      523     0   539
##  8 habit                  sessile, mixed, not…     0     15      524     0   539
##  9 environmentalPosition  endo+epi, epi, dem+…     0      7      532     0   539
## 10 detected_meso_seagrass NA, x, notapp            0     10       26   503    36
## # ℹ 62 more rows
…
## [1] "Number of publications where quadrats were collected along transects:  126"

12 DATA TYPE

data_type <- count_results[["collectedDataType"]] 

data_type$Percentage <- round(data_type$Percentage, 1)

data_type

## # A tibble: 33 × 3
##    collectedDataType              Count Percentage
##    <fct>                          <int>      <dbl>
##  1 nd                                 1        0.2
##  2 photo                             69       12.8
##  3 photo+sediment+video               2        0.4
##  4 photo+specimen                    41        7.6
##  5 photo+specimen+sediment+visual     2        0.4
##  6 photo+specimen+video              18        3.3
##  7 photo+specimen+video+visual        2        0.4
##  8 photo+specimen+video+water         1        0.2
##  9 photo+specimen+visual             10        1.9
## 10 photo+specimen+water               1        0.2
## # ℹ 23 more rows
…
