Peering into the twilight - a systematic review on visual-based investigation of mesophotic ecosystems - TROPICAL
…
# Combine into one dataframe
summary_df <- bind_rows(summary_list)

summary_df

## # A tibble: 72 × 7
##    Column                 unique                  nd notapp assigned  `NA` total
##    <chr>                  <chr>                <int>  <int>    <int> <int> <int>
##  1 meso_direct_indirect   indirect, mixed, di…     3      0      439     0   442
##  2 meso_samplingPlatform  acou+bruv+tcs, bruv…     3      0      439     0   442
##  3 taxonomic_publication  NA, taxa, taxa++         0      0       60   382    60
##  4 meso_substrate         hard, mixed, nd, so…    19      0      385    38   404
##  5 meso_habitat           coralreef, mixed, N…    11      0      415    16   426
##  6 meso_protection        mixed, nd, yes, no     344      0       98     0   442
##  7 taxonomicTargetLevel   comm, group, single…     0      3      439     0   442
##  8 habit                  mixed, vagile, sess…     0      2      440     0   442
##  9 environmentalPosition  dem+epi, epi, endo+…     0      1      441     0   442
## 10 detected_meso_seagrass NA, x, notapp            0      1        6   435     7
## # ℹ 62 more rows
…
## [1] "Number of publications where quadrats were collected along transects:  80"

12 DATA TYPE

data_type <- count_results[["collectedDataType"]] 

data_type$Percentage <- round(data_type$Percentage, 1)

data_type

## # A tibble: 29 × 3
##    collectedDataType             Count Percentage
##    <fct>                         <int>      <dbl>
##  1 photo                            47       10.6
##  2 photo+specimen                   50       11.3
##  3 photo+specimen+sediment           1        0.2
##  4 photo+specimen+sediment+video     3        0.7
##  5 photo+specimen+video              9        2  
##  6 photo+specimen+video+visual       4        0.9
##  7 photo+specimen+visual             7        1.6
##  8 photo+specimen+water              1        0.2
##  9 photo+video                      14        3.2
## 10 photo+video+visual                4        0.9
## # ℹ 19 more rows
…
