SYSTEMATIC REVIEW ON INVESTIGATION METHODS OF MESOPHOTIC ENVIRONMENT WITH A FOCUS ON BENTHIC COMMUNITIES - polar
…
# Combine into one dataframe
summary_df <- bind_rows(summary_list)

summary_df

## # A tibble: 72 × 7
##    Column                 unique                  nd notapp assigned  `NA` total
##    <chr>                  <chr>                <int>  <int>    <int> <int> <int>
##  1 meso_direct_indirect   indirect, mixed          0      0       29     0    29
##  2 meso_samplingPlatform  dredge+rov, rov, dr…     0      0       29     0    29
##  3 taxonomic_publication  NA                       0      0        0    29     0
##  4 meso_substrate         soft, hard, nd, mix…     2      0       23     4    25
##  5 meso_habitat           mud+sandy, sub_ice,…     1      0       26     2    27
##  6 meso_protection        nd, yes, no             25      0        4     0    29
##  7 taxonomicTargetLevel   comm+group, group, …     0      0       29     0    29
##  8 habit                  mixed, vagile, sess…     0      0       29     0    29
##  9 environmentalPosition  epi, dem+endo+epi, …     0      0       29     0    29
## 10 detected_meso_seagrass NA                       0      0        0    29     0
## # ℹ 62 more rows
…
