SYSTEMATIC REVIEW ON INVESTIGATION METHODS OF MESOPHOTIC latitudinalRegionS WITH A FOCUS ON BENTHIC COMMUNITIES
…
# Combine into one dataframe
summary_df <- bind_rows(summary_list)

summary_df

## # A tibble: 72 × 7
##    Column                 unique                  nd notapp assigned  `NA` total
##    <chr>                  <chr>                <int>  <int>    <int> <int> <int>
##  1 meso_direct_indirect   indirect, direct, m…     5      0      989     0   994
##  2 meso_samplingPlatform  acou+bruv+tcs, bruv…     5      0      989     0   994
##  3 taxonomic_publication  NA, taxa, taxa++         0      0       75   919    75
##  4 meso_substrate         hard, mixed, artifi…    32      0      889    73   921
##  5 meso_habitat           coralreef, mixed, c…    21      0      918    55   939
##  6 meso_protection        mixed, nd, yes, no     652      0      342     0   994
##  7 taxonomicTargetLevel   comm, group, comm+g…     0     19      975     0   994
##  8 habit                  mixed, sessile, vag…     0     17      977     0   994
##  9 environmentalPosition  dem+epi, endo+epi, …     0      8      986     0   994
## 10 detected_meso_seagrass NA, x, notapp            0     11       32   951    43
## # ℹ 62 more rows
…
## [1] "Number of publications where quadrats were collected along transects:  207"

12 DATA TYPE

data_type <- count_results[["collectedDataType"]] 

data_type$Percentage <- round(data_type$Percentage, 1)

data_type

## # A tibble: 37 × 3
##    collectedDataType              Count Percentage
##    <fct>                          <int>      <dbl>
##  1 nd                                 1        0.1
##  2 photo                            118       11.9
##  3 photo+sediment+video               2        0.2
##  4 photo+specimen                    91        9.2
##  5 photo+specimen+sediment            1        0.1
##  6 photo+specimen+sediment+video      3        0.3
##  7 photo+specimen+sediment+visual     2        0.2
##  8 photo+specimen+video              27        2.7
##  9 photo+specimen+video+visual        6        0.6
## 10 photo+specimen+video+water         2        0.2
## # ℹ 27 more rows
…
